{
  "name": "remapgl",
  "$schema": "../../node_modules/nx/schemas/project-schema.json",
  "sourceRoot": "libs/remapgl/src",
  "projectType": "library",
  "generators": {},
  "targets": {
    "lint": {
      "executor": "@nx/eslint:lint",
      "outputs": ["{options.outputFile}"]
    },
    "build": {
      "executor": "@nrwl/rollup:rollup",
      "options": {
        "assets": [
          {
            "glob": "libs/remapgl/README.md",
            "input": ".",
            "output": "."
          }
        ],
        "babelConfig": "@nx/react/plugins/bundle-babel",
        "buildableProjectDepsInPackageJsonType": "peerDependencies",
        "entryFile": "libs/remapgl/src/index.ts",
        "format": ["esm"],
        "outputPath": "dist/libs/remapgl",
        "project": "libs/remapgl/package.json",
        "rollupConfig": [
          "@nx/react/plugins/bundle-rollup",
          "libs/remapgl/rollup.config.js"
        ],
        "tsConfig": "libs/remapgl/tsconfig.lib.json",
        "updateBuildableProjectDepsInPackageJson": true
      },
      "outputs": ["{options.outputPath}"]
    },
    "test": {
      "executor": "@nx/jest:jest",
      "options": {
        "jestConfig": "libs/remapgl/jest.config.ts",
        "tsconfig": "libs/remapgl/tsconfig.spec.json"
      },
      "outputs": ["{workspaceRoot}/coverage/libs/remapgl"]
    }
  },
  "tags": []
}
